%YAML 1.1
%TAG !u! tag:unity3d.com,2011:
--- !u!21 &2100000
Material:
  serializedVersion: 3
  m_ObjectHideFlags: 0
  m_PrefabParentObject: {fileID: 0}
  m_PrefabInternal: {fileID: 0}
  m_Name: proto_gray
  m_Shader: {fileID: 4, guid: 0000000000000000f000000000000000, type: 0}
  m_ShaderKeywords: []
  m_CustomRenderQueue: -1
  m_SavedProperties:
    serializedVersion: 2
    m_TexEnvs:
      data:
        first:
          name: _MainTex
        second:
          m_Texture: {fileID: 2800000, guid: 0e4b8713af0358548aa45b5c748ce7ad, type: 3}
          m_Scale: {x: 20, y: 2}
          m_Offset: {x: 0, y: 0}
      data:
        first:
          name: _BumpMap
        second:
          m_Texture: {fileID: 2800000, guid: f85b378874d684b4580612bb98cb0e79, type: 3}
          m_Scale: {x: 20, y: 2}
          m_Offset: {x: 0, y: 0}
    m_Floats:
      data:
        first:
          name: _Shininess
        second: .078125
    m_Colors:
      data:
        first:
          name: _Color
        second: {r: .858208954, g: .858208954, b: .858208954, a: 1}
      data:
        first:
          name: _SpecColor
        second: {r: .850746274, g: .850746274, b: .850746274, a: 1}
--- !u!1002 &2100001
EditorExtensionImpl:
  serializedVersion: 6
